<?xml version="1.0" encoding="utf-8"?>
<!-- Generator: Adobe Illustrator 26.5.0, SVG Export Plug-In . SVG Version: 6.00 Build 0)  -->
<svg version="1.1" id="Layer_1" xmlns="http://www.w3.org/2000/svg" xmlns:xlink="http://www.w3.org/1999/xlink" x="0px" y="0px"
	 viewBox="0 0 512 512" style="enable-background:new 0 0 512 512;" xml:space="preserve">
<g>
	<g>
		<path fill="none" d="M256,0c-45,0-89.3,11.9-128,34.3c-7.2,4.1-9.6,13.3-5.5,20.5l40.2,69.6c4.1,7.2,13.3,9.6,20.5,5.5
			c22-12.8,47.2-19.5,72.8-19.5c8.3,0,15-6.7,15-15V15C271,6.7,264.3,0,256,0z"/>
		<path fill="white" d="M34.3,128c22.5-39,54.9-71.4,93.7-93.7l55.1,95.6c-22.1,12.7-40.5,31.1-53.3,53.3c-4.1,7.2-13.3,9.6-20.5,5.5
			l-69.6-40.2C32.6,144.4,30.1,135.2,34.3,128z"/>
		<path fill="white" d="M256,0v110.3c25.6,0,50.8,6.7,72.8,19.5c7.2,4.2,16.4,1.7,20.5-5.5l40.2-69.6c4.1-7.2,1.7-16.3-5.5-20.5
			C345.3,11.9,301,0,256,0L256,0z"/>
		<path fill="none" d="M384,34.3c39,22.5,71.4,54.9,93.7,93.7c4.1,7.2,1.7,16.3-5.5,20.5l-69.6,40.2c-7.2,4.1-16.4,1.7-20.5-5.5
			c-12.7-22.1-31.1-40.5-53.3-53.3L384,34.3z"/>
		<path fill="white" d="M512,256c0-45-11.9-89.3-34.3-128l-95.5,55.2c12.8,22,19.5,47.2,19.5,72.8c0,8.3,6.7,15,15,15H497
			C505.3,271,512,264.3,512,256z"/>
		<path fill="none" d="M512,256H401.7c0,25.6-6.7,50.8-19.5,72.8c-4.2,7.2-1.7,16.4,5.5,20.5l69.6,40.2c7.2,4.1,16.3,1.7,20.5-5.5
			C500.1,345.3,512,301,512,256L512,256z"/>
		<path fill="white" d="M477.7,384l-95.6-55.2c-12.8,22.2-31.2,40.6-53.3,53.3c-7.2,4.1-9.6,13.3-5.5,20.5l40.2,69.6
			c4.1,7.2,13.3,9.6,20.5,5.5C422.8,455.3,455.2,422.9,477.7,384L477.7,384z"/>
		<path fill="none" d="M256,512c-8.3,0-15-6.7-15-15v-80.3c0-8.3,6.7-15,15-15c25.6,0,50.8-6.7,72.8-19.5l55.2,95.5
			C345.3,500.1,301,512,256,512L256,512z"/>
		<path  fill="none" d="M0,256c0-45,11.9-89.3,34.3-128l95.5,55.2c-12.8,22-19.5,47.2-19.5,72.8c0,8.3-6.7,15-15,15H15
			C6.7,271,0,264.3,0,256z"/>
		<path fill="white" d="M0,256h110.3c0,25.6,6.7,50.8,19.5,72.8c4.2,7.2,1.7,16.4-5.5,20.5l-69.6,40.2c-7.2,4.1-16.3,1.7-20.5-5.5
			C11.9,345.3,0,301,0,256L0,256z"/>
		<path fill="none" d="M128,477.7c7.2,4.1,16.3,1.7,20.5-5.5l40.2-69.6c4.1-7.2,1.7-16.3-5.5-20.5c-22.2-12.8-40.6-31.2-53.3-53.3
			L34.3,384C56.7,422.8,89.1,455.2,128,477.7L128,477.7z"/>
		<path fill="white" d="M256,512c-45,0-89.3-11.9-128-34.3l55.2-95.5c22,12.8,47.2,19.5,72.8,19.5V512z"/>
	</g>
	<g>
		<ellipse fill="none" cx="255.9" cy="256" rx="175.6" ry="175.6"/>
	</g>
</g>
</svg>
