<?xml version="1.0" encoding="UTF-8"?>
<svg width="60px" height="60px" viewBox="0 0 60 60" version="1.1" xmlns="http://www.w3.org/2000/svg" xmlns:xlink="http://www.w3.org/1999/xlink">
    <!-- Generator: Sketch 63.1 (92452) - https://sketch.com -->
    <title>Whatsapp</title>
    <desc>Created with Sketch.</desc>
    <defs>
        <path d="M13.6946416,0.0413651877 C12.3610239,0.0887713311 10.6422184,0.193105802 9.86098976,0.350784983 L9.86098976,0.350784983 C8.66846416,0.591604096 7.54228669,0.956723549 6.60573379,1.43406143 L6.60573379,1.43406143 C5.50535836,1.99484642 4.51914676,2.7103413 3.66757679,3.5605802 L3.66757679,3.5605802 C2.81406143,4.41245734 2.09569966,5.39959044 1.53266212,6.5016041 L1.53266212,6.5016041 C1.05665529,7.43313993 0.691740614,8.55245734 0.449897611,9.73822526 L0.449897611,9.73822526 C0.289044369,10.5273379 0.182662116,12.258942 0.13443686,13.6011604 L0.13443686,13.6011604 C0.114880546,14.1497611 0.104846416,14.859727 0.104846416,15.1871672 L0.104846416,15.1871672 L0.100136519,44.6318089 C0.100136519,44.9579181 0.110068259,45.6680887 0.129522184,46.2173038 L0.129522184,46.2173038 C0.176928328,47.5508191 0.281262799,49.2696246 0.439044369,50.0508532 L0.439044369,50.0508532 C0.679761092,51.2432765 1.04498294,52.3695563 1.52221843,53.3061092 L1.52221843,53.3061092 C2.0831058,54.406587 2.79849829,55.3925939 3.6487372,56.2442662 L3.6487372,56.2442662 C4.50061433,57.0976792 5.48784983,57.816041 6.58976109,58.3791809 L6.58976109,58.3791809 C7.52139932,58.8550853 8.64071672,59.2201024 9.82638225,59.4619454 L9.82638225,59.4619454 C10.6154949,59.6227986 12.3472014,59.7291809 13.6894198,59.7773038 L13.6894198,59.7773038 C14.2378157,59.7969625 14.947884,59.8069966 15.2753242,59.8069966 L15.2753242,59.8069966 L44.7199659,59.8117065 C45.0461775,59.8117065 45.7563481,59.8018771 46.3053584,59.7823208 L46.3053584,59.7823208 C47.6389761,59.7348123 49.357884,59.6305802 50.1390102,59.4727986 L50.1390102,59.4727986 C51.3315358,59.2319795 52.4578157,58.8667577 53.3942662,58.3896246 L53.3942662,58.3896246 C54.4946416,57.8287372 55.4808532,57.1132423 56.3324232,56.2631058 L56.3324232,56.2631058 C57.1858362,55.4111263 57.904198,54.4240956 58.4673379,53.3220819 L58.4673379,53.3220819 C58.9432423,52.3904437 59.3083618,51.2712287 59.5501024,50.0854608 L59.5501024,50.0854608 C59.711058,49.2963481 59.8173379,47.5645392 59.8655631,46.2224232 L59.8655631,46.2224232 C59.8852218,45.6739249 59.8951536,44.963959 59.8951536,44.6365188 L59.8951536,44.6365188 L59.8999659,15.1918771 C59.8999659,14.8656655 59.8900341,14.1554949 59.8704778,13.6063823 L59.8704778,13.6063823 C59.8229693,12.2728669 59.7187372,10.5540614 59.5609556,9.77283276 L59.5609556,9.77283276 C59.3202389,8.58030717 58.9550171,7.45412969 58.4777816,6.51757679 L58.4777816,6.51757679 C57.9169966,5.41709898 57.2013993,4.43098976 56.3513652,3.57931741 L56.3513652,3.57931741 C55.4993857,2.72600683 54.5121502,2.00754266 53.4102389,1.44450512 L53.4102389,1.44450512 C52.4786007,0.968498294 51.3593857,0.603481229 50.1736177,0.361740614 L50.1736177,0.361740614 C49.3845051,0.200887372 47.6527986,0.0945051195 46.3106826,0.0463822526 L46.3106826,0.0463822526 C45.7620819,0.0266211604 45.052116,0.0166894198 44.7246758,0.0166894198 L44.7246758,0.0166894198 L15.2800341,0.0119795222 C14.9538225,0.0119795222 14.2436519,0.0218088737 13.6946416,0.0413651877" id="path-1"></path>
        <linearGradient x1="49.9999562%" y1="100.00001%" x2="49.9999562%" y2="-0.00011682339%" id="linearGradient-3">
            <stop stop-color="#24CF42" offset="0%"></stop>
            <stop stop-color="#60FD7C" offset="100%"></stop>
        </linearGradient>
    </defs>
    <g id="Page-1" stroke="none" stroke-width="1" fill="none" fill-rule="evenodd">
        <g id="Whatsapp" transform="translate(0.000000, 0.088055)">
            <g id="Group-6">
                <mask id="mask-2" fill="white">
                    <use xlink:href="#path-1"></use>
                </mask>
                <g id="Clip-5"></g>
                <path d="M13.6946416,0.0413651877 C12.3610239,0.0887713311 10.6422184,0.193105802 9.86098976,0.350784983 L9.86098976,0.350784983 C8.66846416,0.591604096 7.54228669,0.956723549 6.60573379,1.43406143 L6.60573379,1.43406143 C5.50535836,1.99484642 4.51914676,2.7103413 3.66757679,3.5605802 L3.66757679,3.5605802 C2.81406143,4.41245734 2.09569966,5.39959044 1.53266212,6.5016041 L1.53266212,6.5016041 C1.05665529,7.43313993 0.691740614,8.55245734 0.449897611,9.73822526 L0.449897611,9.73822526 C0.289044369,10.5273379 0.182662116,12.258942 0.13443686,13.6011604 L0.13443686,13.6011604 C0.114880546,14.1497611 0.104846416,14.859727 0.104846416,15.1871672 L0.104846416,15.1871672 L0.100136519,44.6318089 C0.100136519,44.9579181 0.110068259,45.6680887 0.129522184,46.2173038 L0.129522184,46.2173038 C0.176928328,47.5508191 0.281262799,49.2696246 0.439044369,50.0508532 L0.439044369,50.0508532 C0.679761092,51.2432765 1.04498294,52.3695563 1.52221843,53.3061092 L1.52221843,53.3061092 C2.0831058,54.406587 2.79849829,55.3925939 3.6487372,56.2442662 L3.6487372,56.2442662 C4.50061433,57.0976792 5.48784983,57.816041 6.58976109,58.3791809 L6.58976109,58.3791809 C7.52139932,58.8550853 8.64071672,59.2201024 9.82638225,59.4619454 L9.82638225,59.4619454 C10.6154949,59.6227986 12.3472014,59.7291809 13.6894198,59.7773038 L13.6894198,59.7773038 C14.2378157,59.7969625 14.947884,59.8069966 15.2753242,59.8069966 L15.2753242,59.8069966 L44.7199659,59.8117065 C45.0461775,59.8117065 45.7563481,59.8018771 46.3053584,59.7823208 L46.3053584,59.7823208 C47.6389761,59.7348123 49.357884,59.6305802 50.1390102,59.4727986 L50.1390102,59.4727986 C51.3315358,59.2319795 52.4578157,58.8667577 53.3942662,58.3896246 L53.3942662,58.3896246 C54.4946416,57.8287372 55.4808532,57.1132423 56.3324232,56.2631058 L56.3324232,56.2631058 C57.1858362,55.4111263 57.904198,54.4240956 58.4673379,53.3220819 L58.4673379,53.3220819 C58.9432423,52.3904437 59.3083618,51.2712287 59.5501024,50.0854608 L59.5501024,50.0854608 C59.711058,49.2963481 59.8173379,47.5645392 59.8655631,46.2224232 L59.8655631,46.2224232 C59.8852218,45.6739249 59.8951536,44.963959 59.8951536,44.6365188 L59.8951536,44.6365188 L59.8999659,15.1918771 C59.8999659,14.8656655 59.8900341,14.1554949 59.8704778,13.6063823 L59.8704778,13.6063823 C59.8229693,12.2728669 59.7187372,10.5540614 59.5609556,9.77283276 L59.5609556,9.77283276 C59.3202389,8.58030717 58.9550171,7.45412969 58.4777816,6.51757679 L58.4777816,6.51757679 C57.9169966,5.41709898 57.2013993,4.43098976 56.3513652,3.57931741 L56.3513652,3.57931741 C55.4993857,2.72600683 54.5121502,2.00754266 53.4102389,1.44450512 L53.4102389,1.44450512 C52.4786007,0.968498294 51.3593857,0.603481229 50.1736177,0.361740614 L50.1736177,0.361740614 C49.3845051,0.200887372 47.6527986,0.0945051195 46.3106826,0.0463822526 L46.3106826,0.0463822526 C45.7620819,0.0266211604 45.052116,0.0166894198 44.7246758,0.0166894198 L44.7246758,0.0166894198 L15.2800341,0.0119795222 C14.9538225,0.0119795222 14.2436519,0.0218088737 13.6946416,0.0413651877" id="Fill-4" fill="url(#linearGradient-3)" mask="url(#mask-2)"></path>
            </g>
            <path d="M40.366198,33.8476997 C39.83357,33.5811809 37.2149693,32.2930239 36.7266758,32.1153788 C36.2384846,31.9377338 35.8835017,31.8488601 35.5284164,32.3818976 C35.1733311,32.9149352 34.1526143,34.1142184 33.8418635,34.4696109 C33.531215,34.824901 33.2205666,34.8694403 32.6879386,34.6028191 C32.1553106,34.3364027 30.4391672,33.7740819 28.4047986,31.9600546 C26.8214539,30.548314 25.7525119,28.8045256 25.4417611,28.2714881 C25.1311126,27.7384505 25.4086894,27.4503276 25.675413,27.1848328 C25.914901,26.9463686 26.2079386,26.5630239 26.4742526,26.2520683 C26.7405666,25.9411126 26.8293379,25.7190307 27.0068805,25.3637406 C27.1844232,25.0083481 27.0956519,24.6973925 26.9624437,24.4308737 C26.8293379,24.1643549 25.7641843,21.5436041 25.3203276,20.477529 C24.888041,19.4393038 24.4488942,19.5797816 24.1219659,19.5635017 C23.8116246,19.548041 23.4562321,19.5447645 23.1011468,19.5447645 C22.7460614,19.5447645 22.169099,19.6780751 21.6808055,20.2110102 C21.1926143,20.7440478 19.8167099,22.0323072 19.8167099,24.6529556 C19.8167099,27.2737065 21.7252423,29.8055836 21.9915563,30.1609761 C22.2578703,30.5163686 25.7472901,35.8944573 31.090157,38.2007713 C32.3609078,38.749372 33.353058,39.0769147 34.1265051,39.3224437 C35.4024778,39.7275973 36.56357,39.6704642 37.4812833,39.5333652 C38.5045597,39.3804983 40.6325119,38.2452082 41.0763686,37.0014881 C41.5201229,35.7577679 41.5201229,34.6916928 41.3870171,34.4696109 C41.2539113,34.247529 40.8988259,34.1142184 40.366198,33.8476997 M30.6479386,47.1126143 L30.6407713,47.1126143 C27.4615904,47.1113857 24.3434334,46.2576655 21.6232628,44.6439113 L20.9762662,44.2599522 L14.2707031,46.0184846 L16.0605666,39.4826826 L15.6392355,38.8126485 C13.8657543,35.9926485 12.929099,32.7332969 12.9304286,29.3867099 C12.9343208,19.6212491 20.882273,11.6763686 30.6550034,11.6763686 C35.3872218,11.6782116 39.8356177,13.5229556 43.1806689,16.8706689 C46.5257201,20.2184846 48.3668805,24.6685188 48.3650389,29.4010444 C48.3610444,39.1672218 40.4131945,47.1126143 30.6479386,47.1126143 M45.7265734,14.3268123 C41.7020683,10.2989283 36.3499863,8.07964505 30.6477338,8.07739249 C18.898587,8.07739249 9.33616382,17.6361297 9.33145392,29.3853788 C9.32991809,33.1411126 10.3114198,36.807256 12.176744,40.0386553 L9.15268259,51.0811126 L20.4527509,48.1179727 C23.566198,49.8155836 27.0715904,50.710157 30.6392355,50.7116928 L30.6479386,50.7116928 L30.648041,50.7116928 C42.3960614,50.7116928 51.9593038,41.151727 51.9641176,29.4023754 C51.9662662,23.7085188 49.7511809,18.3545939 45.7265734,14.3268123" id="Fill-7" fill="#FFFFFF"></path>
        </g>
    </g>
</svg>