<?xml version="1.0" encoding="UTF-8"?>
<svg width="61px" height="61px" viewBox="0 0 61 61" version="1.1" xmlns="http://www.w3.org/2000/svg" xmlns:xlink="http://www.w3.org/1999/xlink">
    <title>path-1</title>
    <g id="Page-1" stroke="none" stroke-width="1" fill="none" fill-rule="evenodd">
        <g id="circle-inactive" transform="translate(1.000000, 1.000000)" fill="none" fill-rule="nonzero" stroke="none" stroke-width="1.25">
            <g id="path-1-link">
                <circle id="path-1" cx="29.5" cy="29.5" r="29.5"></circle>
            </g>
        </g>
    </g>
</svg>